state=
{
	id=102
	name="STATE_102"
	manpower = 1144300
	
	state_category = large_town
	
	history =
	{
		owner = CRO
		buildings = {
			infrastructure = 6
		}
		victory_points = {
			9627 3 
		}
		add_core_of = CRO
		add_core_of = SLV
	}
	provinces={
		596 665 3631 3654 6650 6672 9596 9627 }
	}
