
state={
	id=195
	name="STATE_195"
	manpower = 3750158
	
	state_category = metropolis

	history={
		owner = BAL
		victory_points = {
			3151 30.0
		}
		buildings = {
			infrastructure = 7
			arms_factory = 6
			industrial_complex = 1
			dockyard = 3
			air_base = 10
			3151 ={
				naval_base = 10
				coastal_bunker = 5
			}
		}
		add_core_of = BAL
		add_core_of = RUS
	}

	provinces={
		79 149 3151 6174 11068 
	}
}
