
state={
	id=262
	name="STATE_262" # Pechora
	manpower = 43590
	
	state_category = rural
	
	resources={
		oil=7 # was: 8
	}

	history={
		owner = RUS
		buildings = {
			infrastructure = 1
			12530 = {
				naval_base = 1
			}

		}
		add_core_of = SOV
		add_core_of = RUS
	}

	provinces={
		105 154 198 3147 6016 6040 6177 6192 6538 9099 9121 9205 9230 10207 10723 11047 11119 11182 12530 
	}
}
