
state={
	id=397
	name="STATE_397"
	manpower = 137203
	state_category = wasteland

	history={
		owner = RUS
		buildings = {
			infrastructure = 2

		}
		add_core_of = SOV
		add_core_of = RUS
	}

	provinces={
		6 99 108 186 1295 1307 3000 3155 4298 6121 6202 7318 7330 7712 7898 9145 9225 10579 11179 11200 11203 12558 
	}
}
