
state={
	id=573
	name="STATE_573" # Zlatoust
	manpower = 556677
	
	state_category = pastoral
	resources={
		chromium=23 # was: 32
	}

	history={
		victory_points = {
			10329 1
		}
		owner = RUS
		buildings = {
			infrastructure = 4

		}
		add_core_of = RUS
		add_core_of = SOV
	}

	provinces={
		237 278 361 3280 4758 7320 10136 10142 10329 11223 11307 12117 
	}
}
