
state={
	id=581
	name="STATE_581"
	manpower = 48831
	
	state_category = wasteland
	
	resources={
		chromium=40 # was: 44
		aluminium=27 # was: 30
	}

	history={
		owner = RUS
		buildings = {
			infrastructure = 1

		}
		add_core_of = RUS
		add_core_of = SOV
	}

	provinces={
		4874 7824 10216 10551 10677 11098 12393 12502 12659 13076 
	}
}
