state={
	id=742
	name="STATE_742"

	history={
		add_core_of = TAJ
		owner = KYR
		victory_points = {
			1384 3
		}
		victory_points = {
			12430 2
		}
		buildings = {
			infrastructure = 1

		}
		add_core_of = KYR

	}

	provinces={
		1216 1384 1919 4542 7224 8027 10187 10417 12218 12250 12430 12805 
	}
	manpower=230000
	buildings_max_level_factor=1.000
	state_category=wasteland
}
