
state={
	id=77
	name="STATE_77"
	manpower = 378000
	
	state_category = rural

	history={
		victory_points = {
			11597 1
		}
		owner = ROM
		buildings = {
			infrastructure = 5
			industrial_complex = 2
		}
		add_core_of = BUL
		add_core_of = ROM
	}

	provinces={
		9614 11597 
	}
}
