state={
	id=805
	name="STATE_805"

	history={
		owner = KYR
		add_core_of = KYR
		buildings = {
			infrastructure = 1

		}

	}

	provinces={
		4636 4686 7556 7597 7777 10148 10366 10506 10601 12340 12397 
	}
	manpower=401036
	buildings_max_level_factor=1.000
	state_category=rural
}
