version="0.01"
tags={
	"Alternative History"
	"Map"
	"Events"
	"National Focuses"
	"Sound"
}
name="La Foule - Dev"
path="d:/Documents/Paradox Interactive/Hearts of Iron IV/mod/la-foule"
supported_version="1.9.0"