strategic_region={
	id=27
	name="STRATEGICREGION_27"
	provinces={
		646 662 676 679 682 684 686 690 693 696 699 701 711 713 716 727 730 746 3548 3649 3665 3670 3676 3680 3683 3689 3694 3696 3709 3713 3730 3731 6571 6670 6679 6682 6685 6697 6700 6703 6709 6711 6714 6716 6720 6731 6735 6751 9563 9606 9619 9624 9640 9643 9656 9660 9668 9670 9672 9676 9685 9687 9690 9704 9706 11520 11536 11592 11608 11610 11622 11625 11627 11639 11644 11646 11659 11663 11676 11691 13125 13243
	}
	weather={
		period={
			between={ 0.0 30.0 }
			temperature={ -8.0 4.0 }
			temperature_day_night={ 9.0 -9.0 }
			no_phenomenon=0.500
			rain_light=0.100
			rain_heavy=0.050
			snow=0.300
			blizzard=0.050
			arctic_water=0.000
			mud=0.800
			sandstorm=0.000
			min_snow_level=0.000
		}
		period={
			between={ 0.1 27.1 }
			temperature={ -4.0 4.0 }
			temperature_day_night={ 9.0 -9.0 }
			no_phenomenon=0.500
			rain_light=0.100
			rain_heavy=0.050
			snow=0.300
			blizzard=0.050
			arctic_water=0.000
			mud=0.800
			sandstorm=0.000
			min_snow_level=0.000
		}
		period={
			between={ 0.2 30.2 }
			temperature={ 3.0 9.0 }
			temperature_day_night={ 10.0 -10.0 }
			no_phenomenon=0.500
			rain_light=0.350
			rain_heavy=0.100
			snow=0.250
			blizzard=0.050
			arctic_water=0.000
			mud=0.800
			sandstorm=0.000
			min_snow_level=0.000
		}
		period={
			between={ 0.3 29.3 }
			temperature={ 5.0 15.0 }
			temperature_day_night={ 10.0 -10.0 }
			no_phenomenon=0.500
			rain_light=0.350
			rain_heavy=0.150
			snow=0.100
			blizzard=0.000
			arctic_water=0.000
			mud=0.800
			sandstorm=0.000
			min_snow_level=0.000
		}
		period={
			between={ 0.4 30.4 }
			temperature={ 10.0 20.0 }
			temperature_day_night={ 10.0 -10.0 }
			no_phenomenon=0.500
			rain_light=0.350
			rain_heavy=0.150
			snow=0.000
			blizzard=0.000
			arctic_water=0.000
			mud=0.800
			sandstorm=0.000
			min_snow_level=0.000
		}
		period={
			between={ 0.5 29.5 }
			temperature={ 13.0 17.0 }
			temperature_day_night={ 9.0 -9.0 }
			no_phenomenon=0.500
			rain_light=0.350
			rain_heavy=0.150
			snow=0.000
			blizzard=0.000
			arctic_water=0.000
			mud=0.800
			sandstorm=0.000
			min_snow_level=0.000
		}
		period={
			between={ 0.6 30.6 }
			temperature={ 16.0 26.0 }
			temperature_day_night={ 9.0 -9.0 }
			no_phenomenon=0.600
			rain_light=0.350
			rain_heavy=0.150
			snow=0.000
			blizzard=0.000
			arctic_water=0.000
			mud=0.800
			sandstorm=0.000
			min_snow_level=0.000
		}
		period={
			between={ 0.7 30.7 }
			temperature={ 15.0 23.0 }
			temperature_day_night={ 9.0 -9.0 }
			no_phenomenon=0.600
			rain_light=0.350
			rain_heavy=0.150
			snow=0.000
			blizzard=0.000
			arctic_water=0.000
			mud=0.800
			sandstorm=0.000
			min_snow_level=0.000
		}
		period={
			between={ 0.8 29.8 }
			temperature={ 12.0 19.0 }
			temperature_day_night={ 8.0 -8.0 }
			no_phenomenon=0.500
			rain_light=0.300
			rain_heavy=0.100
			snow=0.000
			blizzard=0.000
			arctic_water=0.000
			mud=0.800
			sandstorm=0.000
			min_snow_level=0.000
		}
		period={
			between={ 0.9 30.9 }
			temperature={ 7.0 13.0 }
			temperature_day_night={ 7.0 -7.0 }
			no_phenomenon=0.500
			rain_light=0.300
			rain_heavy=0.100
			snow=0.100
			blizzard=0.000
			arctic_water=0.000
			mud=0.800
			sandstorm=0.000
			min_snow_level=0.000
		}
		period={
			between={ 0.10 29.10 }
			temperature={ 4.0 7.0 }
			temperature_day_night={ 7.0 -7.0 }
			no_phenomenon=0.500
			rain_light=0.150
			rain_heavy=0.050
			snow=0.350
			blizzard=0.050
			arctic_water=0.000
			mud=0.800
			sandstorm=0.000
			min_snow_level=0.000
		}
		period={
			between={ 0.11 30.11 }
			temperature={ -5.0 4.0 }
			temperature_day_night={ 6.0 -10.0 }
			no_phenomenon=0.500
			rain_light=0.100
			rain_heavy=0.050
			snow=0.300
			blizzard=0.050
			arctic_water=0.000
			mud=0.800
			sandstorm=0.000
			min_snow_level=0.000
		}
		period={
			between={ 4.11 21.11 }
			temperature={ -10.0 35.0 }
			temperature_day_night={ 2.0 -2.0 }
			no_phenomenon=1.500
			rain_light=0.250
			rain_heavy=0.100
			snow=0.000
			blizzard=0.000
			arctic_water=0.000
			mud=0.000
			sandstorm=0.000
			min_snow_level=0.000
		}
	}
}
