1={3838 }
2={11751 }
3={9620 }
4={6690 }
5={11386 }
6={6560 }
7={68 }
8={6583 }
9={9421 }
10={3544 }
11={3272 }
12={11222 }
13={496 }
14={6548 }
15={9578 }
16={9725 }
17={6698 }
18={6545 }
19={6762 }
20={641 }
21={11875 }
22={6962 }
23={655 }
24={3493 }
25={9751 }
26={590 }
27={11628 }
28={1346 }
29={11548 }
30={3495 }
31={12169 }
32={780 }
33={651 }
34={9444 }
35={6496 }
36={6286 }
37={3260 }
38={11123 }
39={11598 }
40={1779 }
41={9767 }
42={3423 }
43={716 }
44={9875 }
45={3623 }
46={674 }
47={976 }
48={949 }
49={6908 }
50={519 }
51={6570 }
52={6693 }
53={11497 }
54={9572 }
55={3397 }
56={336 }
57={6535 }
58={6257 }
59={6263 }
60={6524 }
61={11276 }
62={3340 }
63={6334 }
64={3367 }
65={3535 }
66={9470 }
67={11467 }
68={3572 }
69={424 }
70={3484 }
71={3550 }
72={9551 }
73={9563 }
74={3583 }
75={11511 }
76={11676 }
77={11597 }
78={9683 }
79={3741 }
80={577 }
81={3645 }
82={11592 }
83={9640 }
84={676 }
85={389 }
86={6558 }
87={9546 }
88={11398 }
89={11550 }
90={11532 }
91={11479 }
92={6484 }
93={513 }
94={3256 }
95={6359 }
96={11391 }
97={11301 }
98={9290 }
99={3341 }
100={12689 }
101={10245 }
102={9596 }
103={984 }
104={11872 }
105={9821 }
106={6886 }
107={3609 }
108={6970 }
109={9595 }
110={9103 }
111={9167 }
112={924 }
113={3342 }
114={11824 }
115={12047 }
116={12003 }
117={3958 }
118={4135 }
119={385 }
120={6104 }
121={9392 }
122={253 }
123={3463 }
124={6258 }
125={11253 }
126={11374 }
127={13070 }
128={7239 }
129={364 }
130={9332 }
131={9285 }
132={6318 }
133={3273 }
134={9255 }
135={9284 }
136={11055 }
137={6724 }
138={11376 }
139={11311 }
140={6028 }
141={11163 }
142={53 }
143={6038 }
144={3034 }
145={9228 }
146={6150 }
147={197 }
148={11204 }
149={11132 }
150={11076 }
151={658 }
152={3684 }
153={11618 }
154={11646 }
155={682 }
156={3901 }
157={925 }
158={11730 }
159={6661 }
160={11584 }
161={9752 }
162={910 }
163={3943 }
164={10007 }
165={9797 }
166={9813 }
167={6856 }
168={9903 }
169={1178 }
170={9925 }
171={11692 }
172={3737 }
173={1176 }
174={726 }
175={3953 }
176={9870 }
177={9793 }
178={13071 }
179={9869 }
180={6921 }
181={6996 }
182={9940 }
183={7193 }
184={11774 }
185={9916 }
186={4078 }
187={6550 }
188={3288 }
189={9731 }
190={3194 }
191={9221 }
192={9714 }
193={6508 }
194={6232 }
195={149 }
196={737 }
197={574 }
198={9423 }
199={3457 }
200={3767 }
201={6593 }
202={525 }
203={488 }
204={331 }
205={11235 }
206={11322 }
207={9323 }
208={181 }
209={11097 }
210={9353 }
211={649 }
212={6952 }
213={3012 }
214={3065 }
215={134 }
216={2994 }
217={11484 }
218={9417 }
219={6414 }
220={3580 }
221={6554 }
222={11368 }
223={3292 }
224={3364 }
225={522 }
226={9463 }
227={6474 }
228={6519 }
229={1610 }
230={6642 }
231={6669 }
232={3682 }
233={6674 }
234={6768 }
235={9707 }
236={6620 }
237={3774 }
238={9415 }
239={3426 }
240={6481 }
241={9247 }
242={6387 }
243={11336 }
244={6095 }
245={509 }
246={9265 }
247={6122 }
248={9122 }
249={3214 }
250={3276 }
251={11377 }
252={6327 }
253={280 }
254={269 }
255={6248 }
256={9259 }
257={340 }
258={6398 }
259={11504 }
260={510 }
261={6855 }
262={6538 }
263={6154 }
264={9107 }
265={487 }
266={7602 }
267={7519 }
268={4985 }
269={8094 }
270={1280 }
271={8036 }
272={12710 }
273={1994 }
274={8039 }
275={5106 }
276={6630 }
277={1965 }
278={7621 }
279={12954 }
280={2204 }
281={4967 }
282={7016 }
283={531 }
284={4748 }
285={7471 }
286={1400 }
287={8042 }
288={1296 }
289={10250 }
290={12087 }
291={7994 }
292={4968 }
293={4924 }
294={2018 }
295={1968 }
296={12891 }
297={8244 }
298={7959 }
299={12960 }
300={10502 }
301={2152 }
302={5179 }
303={12997 }
304={7630 }
305={10888 }
306={2079 }
307={7968 }
308={7123 }
309={10906 }
310={4934 }
311={2077 }
312={8017 }
313={10886 }
314={12823 }
315={10498 }
316={13087 }
317={2075 }
318={4641 }
319={7660 }
320={10149 }
321={1273 }
322={2093 }
323={10825 }
324={8010 }
325={1172 }
326={10062 }
327={12236 }
328={9913 }
329={10627 }
330={4801 }
331={12680 }
332={1785 }
333={10240 }
334={4335 }
335={1209 }
336={4367 }
337={13003 }
338={6221 }
339={6992 }
340={11867 }
341={6895 }
342={12013 }
343={3983 }
344={3889 }
345={7026 }
346={940 }
347={904 }
348={3807 }
349={3950 }
350={4512 }
351={11095 }
352={864 }
353={11880 }
354={789 }
355={960 }
356={6938 }
357={12221 }
358={9754 }
359={3863 }
360={6885 }
361={6929 }
362={4627 }
363={11783 }
364={10029 }
365={9996 }
366={12752 }
367={4756 }
368={7791 }
369={4402 }
370={10753 }
371={4507 }
372={4625 }
373={12463 }
374={11802 }
375={5061 }
376={10914 }
377={10573 }
378={11763 }
379={7756 }
380={1756 }
381={12633 }
382={1738 }
383={1753 }
384={4830 }
385={1414 }
386={7386 }
387={10602 }
388={4741 }
389={4759 }
390={7862 }
391={9880 }
392={1678 }
393={9684 }
394={4738 }
395={720 }
396={9810 }
397={4298 }
398={1336 }
399={6217 }
400={6171 }
401={3551 }
402={4581 }
403={10659 }
404={4250 }
405={1459 }
406={11455 }
407={11480 }
408={3739 }
409={11719 }
410={2070 }
411={12756 }
412={10881 }
413={5089 }
414={12852 }
415={1948 }
416={1888 }
417={1982 }
418={8009 }
419={2071 }
420={4901 }
421={5098 }
422={4219 }
423={12247 }
424={7297 }
425={7395 }
426={12490 }
427={4472 }
428={4064 }
429={4353 }
430={9993 }
431={4204 }
432={10090 }
433={1199 }
434={1116 }
435={12035 }
436={7430 }
437={8076 }
438={4045 }
439={11955 }
440={10066 }
441={12884 }
442={12763 }
443={10108 }
444={5075 }
445={5105 }
446={12004 }
447={7164 }
448={7066 }
449={10117 }
450={4120 }
451={7082 }
452={11967 }
453={11922 }
454={1086 }
455={4591 }
456={7073 }
457={12889 }
458={1046 }
459={12760 }
460={7065 }
461={7100 }
462={8046 }
463={7855 }
464={7361 }
465={634 }
466={490 }
467={4790 }
468={4417 }
469={736 }
470={6754 }
471={1411 }
472={1671 }
473={7853 }
474={12715 }
475={1900 }
476={2021 }
477={12810 }
478={13089 }
479={5015 }
480={2060 }
481={8057 }
482={8097 }
483={10765 }
484={13215 }
485={10832 }
486={2007 }
487={10924 }
488={10879 }
489={4526 }
490={8149 }
491={8213 }
492={2182 }
493={12790 }
494={2226 }
495={4980 }
496={7476 }
497={12853 }
498={2175 }
499={8242 }
500={10980 }
501={10513 }
502={4604 }
503={5156 }
504={10959 }
505={8140 }
506={5131 }
507={8218 }
508={11001 }
509={2106 }
510={5163 }
511={2179 }
512={8176 }
513={7149 }
514={1901 }
515={10917 }
516={6085 }
517={2130 }
518={12645 }
519={1526 }
520={8209 }
521={4648 }
522={5175 }
523={12123 }
524={12068 }
525={7175 }
526={11932 }
527={11828 }
528={10020 }
529={11985 }
530={11997 }
531={1051 }
532={7087 }
533={11847 }
534={10128 }
535={7217 }
536={12493 }
537={1820 }
538={988 }
539={5139 }
540={7548 }
541={2207 }
542={1580 }
543={5222 }
544={5164 }
545={4851 }
546={2196 }
547={10962 }
548={12929 }
549={10859 }
550={5091 }
551={2046 }
552={12816 }
553={792 }
554={7184 }
555={1515 }
556={10829 }
557={7992 }
558={8021 }
559={5065 }
560={12559 }
561={1730 }
562={12683 }
563={1826 }
564={7751 }
565={4762 }
566={1762 }
567={1735 }
568={12628 }
569={7757 }
570={4734 }
571={10626 }
572={1292 }
573={7320 }
574={10641 }
575={13059 }
576={4743 }
577={4817 }
578={7789 }
579={4669 }
580={7768 }
581={10677 }
582={4265 }
583={10140 }
584={1493 }
585={13222 }
586={1840 }
587={7641 }
588={12635 }
589={4651 }
590={7298 }
591={994 }
592={1087 }
593={1202 }
594={4023 }
595={4053 }
596={7086 }
597={10043 }
598={7200 }
599={10404 }
600={9984 }
601={5102 }
602={7159 }
603={7521 }
604={7940 }
605={12705 }
606={10040 }
607={7129 }
608={11761 }
609={3830 }
610={6937 }
611={828 }
612={12348 }
613={10076 }
614={11996 }
615={10367 }
616={8081 }
617={4682 }
618={7693 }
619={5087 }
620={1612 }
621={12331 }
622={1458 }
623={4368 }
624={1372 }
625={1340 }
626={7419 }
627={12217 }
628={7423 }
629={12021 }
630={13051 }
631={13052 }
632={13047 }
633={13046 }
634={10291 }
635={7264 }
636={7302 }
637={1863 }
638={12140 }
639={13022 }
640={1607 }
641={12148 }
642={13050 }
643={13056 }
644={1819 }
645={13025 }
646={13024 }
647={12103 }
648={13026 }
649={5023 }
650={13067 }
651={273 }
652={1210 }
653={12696 }
654={10713 }
655={855 }
656={8085 }
657={675 }
658={2048 }
659={2029 }
660={3165 }
661={11940 }
662={8069 }
663={1186 }
664={3716 }
665={10082 }
666={3054 }
667={10175 }
668={1419 }
669={1602 }
670={10195 }
671={9948 }
672={10225 }
673={10222 }
674={7623 }
675={4951 }
676={3916 }
677={7140 }
678={12768 }
679={4981 }
680={3942 }
681={4822 }
682={4875 }
683={3736 }
684={13031 }
685={7617 }
686={1440 }
687={4982 }
688={10973 }
689={12304 }
690={10254 }
691={3284 }
692={11106 }
693={10440 }
694={177 }
695={153 }
696={13010 }
697={3118 }
698={1751 }
699={7979 }
700={2094 }
701={4989 }
702={13014 }
703={13013 }
704={13016 }
705={13015 }
706={13017 }
707={13018 }
708={13072 }
709={2188 }
710={13019 }
711={13005 }
712={13002 }
713={2165 }
714={7832 }
715={3978 }
716={6804 }
717={9623 }
718={2073 }
719={7900 }
720={10995 }
721={12178 }
722={9140 }
723={2203 }
724={1394 }
725={13038 }
726={7290 }
727={13049 }
728={11981 }
729={4189 }
730={373 }
731={10163 }
732={5062 }
733={12251 }
734={7390 }
735={3764 }
736={11735 }
737={10206 }
738={4579 }
739={1869 }
740={12259 }
741={10134 }
742={8027 }
743={10000 }
744={4256 }
745={1150 }
746={12706 }
747={4559 }
748={10763 }
749={7104 }
750={4896 }
751={1999 }
752={12837 }
753={1257 }
754={12815 }
755={12890 }
756={10899 }
757={8121 }
758={12784 }
759={2074 }
760={12524 }
761={4852 }
762={6464 }
763={395 }
764={6643 }
765={8051 }
766={6743 }
767={10900 }
768={9962 }
769={2220 }
770={13209 }
771={10594 }
772={3109 }
773={5036 }
774={1473 }
775={4902 }
776={10919 }
777={12843 }
778={7950 }
779={5013 }
780={4957 }
781={1975 }
782={1115 }
783={12857 }
784={3320 }
785={11549 }
786={8035 }
787={10821 }
788={11251 }
789={9347 }
790={6521 }
791={11359 }
792={3326 }
793={11531 }
794={6581 }
795={708 }
796={3571 }
797={1614 }
798={13232 }
799={7563 }
800={13207 }
801={7501 }
802={756 }
803={2058 }
804={3977 }
