state={
	id=173
	name="STATE_173"
	resources={
		steel=8.000
	}

	history={
		owner = SPR
		victory_points = {
			9979 5
		}
		victory_points = {
			12038 1 
		}
		victory_points = {
			1176 3
		}
		buildings = {
			infrastructure = 6
			industrial_complex = 2
			air_base = 4
			9979 = {
				naval_base = 2

			}
			12038 = {
				naval_base = 1

			}

		}
		add_core_of = SPR

	}

	provinces={
		9979 7153 10009 7068 10063 1176 747 12038 11956 4065 7196 
	}
	manpower=1662292
	buildings_max_level_factor=1.000
	state_category=city
}
