state={
	id=175
	name="STATE_175"

	history={
		owner = SPR
		victory_points = {
			6832 1 
		}
		buildings = {
			industrial_complex = 1
			infrastructure = 6

		}
		add_core_of = SPR

	}

	provinces={
		6832 6800 9881 6896 9778 12081 9828 3953 11863
	}
	manpower=526903
	buildings_max_level_factor=1.000
	state_category=rural
}
