
state={
	id=218
	name="STATE_218"
	manpower = 1501076
	
	state_category = city

	history={
		owner = RUS
		victory_points = {
			9417 15 
		}
		buildings = {
			infrastructure = 5
			arms_factory = 1
			industrial_complex = 1
			air_base = 3
			9417 ={
				naval_base = 5
			}
		}
		add_core_of = SOV
		add_core_of = RUS
	}

	provinces={
		585 6445 9417 9430 11418 11434 11450 11559 
	}
}
