
state={
	id=224
	name="STATE_224"
	manpower = 1707567
	
	state_category = town

	history={
		owner = RUS
		victory_points = {
			3335 10
		}
		buildings = {
			infrastructure = 5
			air_base = 2
		}
		add_core_of = SOV
		add_core_of = RUS
	}

	provinces={
		288 315 343 371 398 3226 3306 3335 3364 3390 6305 6330 6386 6411 11229 11298 11325 
	}
}
