state={
	id=230
	name="STATE_230"

	history={
		owner = ARM
		victory_points = {
			12320 1 
		}
		buildings = {
			infrastructure = 3
			industrial_complex = 3
			air_base = 2

		}
		add_core_of = ARM

	}

	provinces={
		3564 4660 6642 6997 11708 12320 12380 12441 12450 13123 
	}
	manpower=1250082
	buildings_max_level_factor=1.000
	state_category=town
}
