
state={
	id=240
	name="STATE_240" # Belgorod
	manpower = 1364537
	
	state_category = town

	history={
		victory_points = {
			9449 1
		}
		owner = RUS
		buildings = {
			infrastructure = 5
		}
		add_core_of = SOV
		add_core_of = RUS
	}

	provinces={
		473 534 3492 6432 6481 6517 6577 9424 9449 9489 9518 11439 11500 
	}
}
