
state={
	id=251
	name="STATE_251"
	manpower = 1391819
	
	state_category = town

	history={
		owner = RUS
		victory_points = {
			11225 3 
		}
		buildings = {
			infrastructure = 5
			arms_factory = 2
			air_base = 1
		}
		add_core_of = SOV
		add_core_of = RUS
	}

	provinces={
		298 338 339 365 393 497 3216 6275 6404 9243 9271 9299 9365 9391 11225 11256 11281 11348 11377 
	}
}
