
state={
	id=53
	name="STATE_53"
	manpower = 1453365
	
	state_category = city

	history={
		owner = GER
		buildings = {
			infrastructure = 6
		}
		add_core_of = GER
		victory_points = {
			9515 3
		}
	}

	provinces={
		532 3541 6725 9515 9681 11497 
	}
}
