state={
	id=71
	name="STATE_71"
	manpower = 1197800
	
	state_category = rural
	
	history={
		victory_points = {
			3581 3
		}
		owner = CZE
		buildings = {
			infrastructure = 4
			industrial_complex = 2
		}
		add_core_of = CZE
		add_core_of = SLO

	}

	provinces={
		555 581 3550 3581 6586 6604 11554 
	}
}
