
state={
	id=718
	name="STATE_718"
	resources={
		rubber=5.000
	}

	history={
		owner = BEL
		buildings = {
			infrastructure = 2

		}
		add_core_of = COG

	}

	provinces={
		1950 2034 2073 2154 4201 6027 11934 12783 12808 12847 13176 
	}
	manpower=113392
	buildings_max_level_factor=1.000
	state_category=rural
}
