
state={
	id=795
	name="STATE_795"
	manpower = 2679413
	
	state_category = city

	history={
		owner = GER
		buildings = {
			infrastructure = 7
		}
		add_core_of = GER

	}

	provinces={
		9666 11638 708
	}
}
