state={
	id=798
	name="STATE_798"

	history={
		add_core_of = TMS
		owner = TMS
		victory_points = {
			10742 1
		}
		victory_points = {
			4482 2
		}
		buildings = {
			infrastructure = 2

		}
		add_core_of = SOV

	}

	provinces={
		1649 10742 10414 4482 7560 4958 5003 4549 7924 10357 13231 13232 13233
	}
	manpower=414523
	buildings_max_level_factor=1.000
	state_category=rural
}
