state={
	id=827
	name="STATE_827"

	history={
		owner = SPR
		victory_points = {
			3945 1 
		}
		buildings = {
			infrastructure = 6
			industrial_complex = 1

		}
		add_core_of = SPR

	}

	provinces={
		3945 6879 11742 9933 3891 888 9757 9852 11870 6993 9785 6841
	}
	manpower=527697
	buildings_max_level_factor=1.000
	state_category=rural
}
