state={
	id=828
	name="STATE_828"

	history={
		owner = SPR
		victory_points = {
			3954 1 
		}
		buildings = {
			infrastructure = 6

		}
		add_core_of = SPR

	}

	provinces={
		3954 3909 798 871 790 9813 11793 11821 11819 915 899
	}
	manpower=387366
	buildings_max_level_factor=1.000
	state_category=pastoral
}
