state={
	id=94
	name="STATE_94"

	history={
		owner = RUS
		buildings = {
			infrastructure = 3

		}
		victory_points = {
			3392 1
		}
		victory_points = {
			560 1
		}
		add_core_of = RUS
		add_core_of = BLR
	}

	provinces={
		535 560 3496 3556 6280 6579 11285 11503 
	}
	manpower=419000
	buildings_max_level_factor=1.000
	state_category=rural
}
