state= {
	id=99
	name="STATE_99"
	manpower = 1672235
	resources={
		aluminium=6 # was: 10
	}
	
	state_category = town

	history=
	{
		owner = DEN
		victory_points = {
			6364 3 
		}
		victory_points = {
			11251 2
		}
		buildings = {
			infrastructure = 8
			industrial_complex = 3
			air_base = 2
			394 = {
				naval_base = 3
			}
			6364 = {
				naval_base = 1
			}
		}
		add_core_of = DEN
	}
	provinces=
	{
316 332 394 399 3206 3277 3341 6235 6364 11251	}
}
